{
	"paths": [
		"/ca/en/aco/home.html",
		"/ca/en/aco/home/book.html",
		"/ca/en/aco/home/book/travels.html",
		"/ca/en/aco/home/book/travels/flights.html",
		"/ca/en/aco/home/book/travels/flights/redirection.html",
		"/ca/en/aco/home/book/travels/flight-passes.html",
		"/ca/en/aco/home/book/travels/cars.html",
		"/ca/en/aco/home/book/travels/cars/cars_en.html",
		"/ca/en/aco/home/book/travels/hotels.html",
		"/ca/en/aco/home/book/travels/hotels/stopover.html",
		"/ca/en/aco/home/book/travels/hotels/processing.html",
		"/ca/en/aco/home/book/travels/hotels/redirection.html",
		"/ca/en/aco/home/book/travels/hotels/redirection/confredir.html",
		"/ca/en/aco/home/book/travels/hotels/redirection/emailredir.html",
		"/ca/en/aco/home/book/travels/hotels/redirection/manageredir.html",
		"/ca/en/aco/home/book/travels/vacations.html",
		"/ca/en/aco/home/book/travels/group-bookings.html",
		"/ca/en/aco/home/book/routes-and-partners.html",
		"/ca/en/aco/home/book/routes-and-partners/flight-schedules.html",
		"/ca/en/aco/home/book/routes-and-partners/star-alliance-and-other-airline-partners.html",
		"/ca/en/aco/home/book/routes-and-partners/star-alliance-and-other-airline-partners/star-alliance.html",
		"/ca/en/aco/home/book/routes-and-partners/star-alliance-and-other-airline-partners/star-alliance-book-and-fly.html",
		"/ca/en/aco/home/book/routes-and-partners/rapidair.html",
		"/ca/en/aco/home/book/routes-and-partners/new-destinations.html",
		"/ca/en/aco/home/book/routes-and-partners/new-destinations/north-america.html",
		"/ca/en/aco/home/book/routes-and-partners/new-destinations/rouge-sun.html",
		"/ca/en/aco/home/book/routes-and-partners/new-destinations/international.html",
		"/ca/en/aco/home/book/routes-and-partners/new-destinations/north-america-rouge.html",
		"/ca/en/aco/home/book/routes-and-partners/new-destinations/canada.html",
		"/ca/en/aco/home/book/routes-and-partners/new-destinations/seasonal.html",
		"/ca/en/aco/home/book/routes-and-partners/featured-destinations.html",
		"/ca/en/aco/home/book/routes-and-partners/featured-destinations/newfoundland.html",
		"/ca/en/aco/home/book/routes-and-partners/featured-destinations/nova-scotia.html",
		"/ca/en/aco/home/book/routes-and-partners/featured-destinations/alberta.html",
		"/ca/en/aco/home/book/routes-and-partners/featured-destinations/vancouver.html",
		"/ca/en/aco/home/book/routes-and-partners/featured-destinations/montreal.html",
		"/ca/en/aco/home/book/routes-and-partners/featured-destinations/ottawa.html",
		"/ca/en/aco/home/book/routes-and-partners/featured-destinations/charlottetown.html",
		"/ca/en/aco/home/book/routes-and-partners/featured-destinations/manitoba.html",
		"/ca/en/aco/home/book/routes-and-partners/featured-destinations/san-jose.html",
		"/ca/en/aco/home/book/routes-and-partners/express-service.html",
		"/ca/en/aco/home/book/travel-news-and-updates.html",
		"/ca/en/aco/home/book/travel-news-and-updates/fly-the-flag.html",
		"/ca/en/aco/home/book/travel-news-and-updates/eta.html",
		"/ca/en/aco/home/book/travel-news-and-updates/telephone-and-email-scams.html",
		"/ca/en/aco/home/book/travel-news-and-updates/news-archive.html",
		"/ca/en/aco/home/book/travel-news-and-updates/2018.html",
		"/ca/en/aco/home/book/travel-news-and-updates/2018/policy-concerning-personal-headphones.html",
		"/ca/en/aco/home/book/travel-news-and-updates/2018/china-fingerprinting-foreign-visitors.html",
		"/ca/en/aco/home/book/travel-news-and-updates/2018/forms-payment-selected-canadian-airports.html",
		"/ca/en/aco/home/book/travel-news-and-updates/2018/economy-basic-available-on-select-flights.html",
		"/ca/en/aco/home/book/travel-news-and-updates/2018/cma-changes-terminals-yvr.html",
		"/ca/en/aco/home/book/travel-news-and-updates/2018/osaka-earthquake.html",
		"/ca/en/aco/home/book/travel-news-and-updates/2018/humboldt-tragedy.html",
		"/ca/en/aco/home/book/travel-news-and-updates/2018/economy-basic-fare.html",
		"/ca/en/aco/home/book/travel-news-and-updates/2018/baggage-fee-changes.html",
		"/ca/en/aco/home/book/travel-news-and-updates/2018/notice-air-canada-mobile-app-users.html",
		"/ca/en/aco/home/book/travel-news-and-updates/2018/goodwill-policy.html",
		"/ca/en/aco/home/book/travel-news-and-updates/2018/cannabis-travel.html",
		"/ca/en/aco/home/book/travel-news-and-updates/2018/esta-travel-us.html",
		"/ca/en/aco/home/book/travel-news-and-updates/2019.html",
		"/ca/en/aco/home/book/travel-news-and-updates/2019/forms-payment-usa.html",
		"/ca/en/aco/home/book/travel-news-and-updates/2019/travelling-to-the-usa.html",
		"/ca/en/aco/home/book/travel-news-and-updates/2019/flights-to-india.html",
		"/ca/en/aco/home/book/travel-news-and-updates/2019/737-airspace-closure.html",
		"/ca/en/aco/home/book/travel-news-and-updates/2019/flight-disruptions-t1pearson.html",
		"/ca/en/aco/home/book/travel-news-and-updates/2019/baggage-fee-changes.html",
		"/ca/en/aco/home/book/travel-news-and-updates/2019/economy-basic-sun.html",
		"/ca/en/aco/home/book/travel-news-and-updates/2019/flights-operated-on-behalf-of-air-canada-3.html",
		"/ca/en/aco/home/book/travel-news-and-updates/2019/sri-lanka-incidents.html",
		"/ca/en/aco/home/book/travel-news-and-updates/2019/avianca-brasil-flights.html",
		"/ca/en/aco/home/book/travel-news-and-updates/2019/flights-operated-on-behalf-of-air-canada-4.html",
		"/ca/en/aco/home/book/travel-news-and-updates/2019/argentina-general-strike.html",
		"/ca/en/aco/home/book/travel-news-and-updates/2019/flights-operated-on-behalf-of-air-canada-5.html",
		"/ca/en/aco/home/book/travel-news-and-updates/2019/security-screening-orlando.html",
		"/ca/en/aco/home/book/travel-news-and-updates/2019/flooding-eastern-canada.html",
		"/ca/en/aco/home/book/travel-news-and-updates/2019/economy-basic-hk.html",
		"/ca/en/aco/home/book/travel-news-and-updates/2019/amsterdam-general-strike.html",
		"/ca/en/aco/home/book/travel-news-and-updates/2019/economy-basic-japan-taiwan.html",
		"/ca/en/aco/home/book/travel-news-and-updates/2019/outage-notification.html",
		"/ca/en/aco/home/book/travel-news-and-updates/2019/northern-alberta-forest-fires.html",
		"/ca/en/aco/home/book/travel-news-and-updates/2019/enhanced-check-in-process.html",
		"/ca/en/aco/home/book/travel-news-and-updates/2019/eva-airways-strike.html",
		"/ca/en/aco/home/book/travel-news-and-updates/2019/new-orleans-flooding.html",
		"/ca/en/aco/home/book/travel-news-and-updates/2019/airport-milan-linate-closure.html",
		"/ca/en/aco/home/book/travel-news-and-updates/goodwill-policies.html",
		"/ca/en/aco/home/book/business-travel.html",
		"/ca/en/aco/home/book/business-travel/corporate-rewards.html",
		"/ca/en/aco/home/book/business-travel/corporate-rewards/program-enhancements.html",
		"/ca/en/aco/home/book/business-travel/corporate-rewards/request-information.html",
		"/ca/en/aco/home/book/business-travel/corporate-rewards/request-information/thank-you.html",
		"/ca/en/aco/home/book/business-travel/corporate-rewards/news-and-offers.html",
		"/ca/en/aco/home/book/business-travel/corporate-rewards/limited-time-offers.html",
		"/ca/en/aco/home/book/business-travel/corporate-rewards/rewards-bonuses.html",
		"/ca/en/aco/home/book/business-travel/corporate-rewards/promotions.html",
		"/ca/en/aco/home/book/business-travel/corporate-rewards/dashboard.html",
		"/ca/en/aco/home/book/business-travel/corporate-rewards/terms-and-conditions.html",
		"/ca/en/aco/home/book/business-travel/corporate-rewards/privacy-policy.html",
		"/ca/en/aco/home/book/business-travel/corporate-rewards/offers.html",
		"/ca/en/aco/home/book/business-travel/corporate-rewards/offers/ntp-offer.html",
		"/ca/en/aco/home/book/business-travel/corporate-rewards/offers/air-canada-vacations.html",
		"/ca/en/aco/home/book/business-travel/corporate-rewards/offers/explore-asia.html",
		"/ca/en/aco/home/book/business-travel/corporate-rewards/offers/accr-parknfly.html",
		"/ca/en/aco/home/book/business-travel/corporate-rewards/offers/mural-promo.html",
		"/ca/en/aco/home/book/business-travel/corporate-rewards/offers/new-routes.html",
		"/ca/en/aco/home/book/business-travel/corporate-rewards/offers/interview-registration.html",
		"/ca/en/aco/home/book/business-travel/corporate-rewards/offers/new-site.html",
		"/ca/en/aco/home/book/business-travel/corporate-rewards/offers/business_class.html",
		"/ca/en/aco/home/book/business-travel/corporate-rewards/offers/onepercent-cashback.html",
		"/ca/en/aco/home/book/business-travel/corporate-rewards/offers/weekly-promo.html",
		"/ca/en/aco/home/book/business-travel/corporate-rewards/offers/accr-promotion.html",
		"/ca/en/aco/home/book/business-travel/corporate-rewards/offers/latitude-fares.html",
		"/ca/en/aco/home/book/business-travel/corporate-rewards/offers/flight-pass.html",
		"/ca/en/aco/home/book/business-travel/corporate-rewards/offers/special-offer.html",
		"/ca/en/aco/home/book/business-travel/corporate-rewards/offers/meetings-conventions.html",
		"/ca/en/aco/home/book/business-travel/corporate-rewards/offers/accr-enrolment.html",
		"/ca/en/aco/home/book/business-travel/corporate-rewards/offers/excelerate2017.html",
		"/ca/en/aco/home/book/business-travel/corporate-rewards/offers/ac-globeplus.html",
		"/ca/en/aco/home/book/business-travel/corporate-rewards/offers/earn-double-aeroplan.html",
		"/ca/en/aco/home/book/business-travel/corporate-rewards/offers/accr-partnership.html",
		"/ca/en/aco/home/book/business-travel/corporate-rewards/offers/partnership-breather.html",
		"/ca/en/aco/home/book/business-travel/corporate-rewards/offers/preferred-seats.html",
		"/ca/en/aco/home/book/business-travel/corporate-rewards/offers/preferred-seat.html",
		"/ca/en/aco/home/book/business-travel/corporate-rewards/offers/cashback.html",
		"/ca/en/aco/home/book/business-travel/corporate-rewards/offers/comfort-fares.html",
		"/ca/en/aco/home/book/business-travel/corporate-rewards/offers/international.html",
		"/ca/en/aco/home/book/business-travel/corporate-rewards/offers/rover.html",
		"/ca/en/aco/home/book/business-travel/corporate-rewards/offers/comfort-for-flex.html",
		"/ca/en/aco/home/book/business-travel/corporate-rewards/offers/acglobe-plus.html",
		"/ca/en/aco/home/book/business-travel/corporate-rewards/offers/accr-acquisition.html",
		"/ca/en/aco/home/book/business-travel/corporate-rewards/offers/fly-midwest.html",
		"/ca/en/aco/home/book/business-travel/corporate-rewards/join-corporate-rewards.html",
		"/ca/en/aco/home/book/business-travel/corporate-rewards/discover.html",
		"/ca/en/aco/home/book/business-travel/corporate-rewards/discover/aircanada-urbania.html",
		"/ca/en/aco/home/book/business-travel/corporate-rewards/discover/aircanada-defipmemtl.html",
		"/ca/en/aco/home/book/business-travel/corporate-rewards/discover/aircanada-mural.html",
		"/ca/en/aco/home/book/business-travel/corporate-rewards/traveller-profile.html",
		"/ca/en/aco/home/book/business-travel/acglobe-plus.html",
		"/ca/en/aco/home/book/business-travel/acglobe.html",
		"/ca/en/aco/home/book/business-travel/acglobe-offer.html",
		"/ca/en/aco/home/book/business-travel/flight-pass-for-business_msm_moved.html",
		"/ca/en/aco/home/book/business-travel/ac-globe-card.html",
		"/ca/en/aco/home/book/business-travel/for-business.html",
		"/ca/en/aco/home/book/business-travel/for-business/booking-tool.html",
		"/ca/en/aco/home/book/business-travel/for-business/rewards.html",
		"/ca/en/aco/home/book/business-travel/for-business/partners.html",
		"/ca/en/aco/home/book/business-travel/for-business/offers.html",
		"/ca/en/aco/home/book/business-travel/for-business/offers/acv.html",
		"/ca/en/aco/home/book/business-travel/for-business/offers/parknfly.html",
		"/ca/en/aco/home/book/business-travel/for-business/offers/breather.html",
		"/ca/en/aco/home/book/business-travel/for-business/offers/rover.html",
		"/ca/en/aco/home/book/business-travel/for-business/offers/wework.html",
		"/ca/en/aco/home/book/business-travel/for-business/offers/cashback.html",
		"/ca/en/aco/home/book/business-travel/for-business/offers/join-now.html",
		"/ca/en/aco/home/book/business-travel/for-business/offers/save-15-can-usa.html",
		"/ca/en/aco/home/book/business-travel/for-business/offers/enhancements.html",
		"/ca/en/aco/home/book/business-travel/for-business/offers/aeroplan.html",
		"/ca/en/aco/home/book/business-travel/for-business/offers/limited-time-offer.html",
		"/ca/en/aco/home/book/business-travel/for-business/offers/promotion.html",
		"/ca/en/aco/home/book/business-travel/for-business/offers/comfort-for-flex.html",
		"/ca/en/aco/home/book/business-travel/for-business/offers/lojiq.html",
		"/ca/en/aco/home/book/business-travel/for-business/offers/comfort-fares.html",
		"/ca/en/aco/home/book/business-travel/for-business/offers/europe.html",
		"/ca/en/aco/home/book/business-travel/for-business/offers/collision.html",
		"/ca/en/aco/home/book/business-travel/for-business/offers/exclusive-offer.html",
		"/ca/en/aco/home/book/business-travel/for-business/offers/us-flights.html",
		"/ca/en/aco/home/book/business-travel/for-business/offers/startup-exclusive-offer.html",
		"/ca/en/aco/home/book/business-travel/for-business/offers/ac-globe-card.html",
		"/ca/en/aco/home/book/business-travel/for-business/offers/mercador.html",
		"/ca/en/aco/home/book/business-travel/for-business/offers/mozio.html",
		"/ca/en/aco/home/book/business-travel/for-business/traveller-profile.html",
		"/ca/en/aco/home/book/business-travel/for-business/terms-and-conditions.html",
		"/ca/en/aco/home/book/business-travel/for-business/faqs.html",
		"/ca/en/aco/home/book/business-travel/for-business/privacy-policy.html",
		"/ca/en/aco/home/book/business-travel/for-business/partners-inc.html",
		"/ca/en/aco/home/book/business-travel/for-business/offers-inc.html",
		"/ca/en/aco/home/book/business-travel/for-corporate.html",
		"/ca/en/aco/home/book/business-travel/for-corporate/request-information.html",
		"/ca/en/aco/home/book/business-travel/for-corporate/request-information/thank-you.html",
		"/ca/en/aco/home/book/charters.html",
		"/ca/en/aco/home/book/charters/thank-you.html",
		"/ca/en/aco/home/book/fare-options-and-fees.html",
		"/ca/en/aco/home/book/fare-options-and-fees/to-the-us.html",
		"/ca/en/aco/home/book/fare-options-and-fees/to-international-destinations.html",
		"/ca/en/aco/home/book/fare-options-and-fees/to-sun-destinations.html",
		"/ca/en/aco/home/book/fare-options-and-fees/within-canada-with-rouge.html",
		"/ca/en/aco/home/book/fare-options-and-fees/to-the-us-with-rouge.html",
		"/ca/en/aco/home/book/fare-options-and-fees/within-canada.html",
		"/ca/en/aco/home/book/fare-options-and-fees/to-international-destinations-with-rouge.html",
		"/ca/en/aco/home/book/fare-options-and-fees/to-sun-destinations-with-rouge.html",
		"/ca/en/aco/home/book/fare-options-and-fees/economy-flex.html",
		"/ca/en/aco/home/book/fare-options-and-fees/economy-basic.html",
		"/ca/en/aco/home/book/fare-options-and-fees/economy-fares.html",
		"/ca/en/aco/home/book/manage-bookings.html",
		"/ca/en/aco/home/book/manage-bookings/flight.html",
		"/ca/en/aco/home/book/manage-bookings/flight-pass.html",
		"/ca/en/aco/home/book/manage-bookings/hotel.html",
		"/ca/en/aco/home/book/manage-bookings/car.html",
		"/ca/en/aco/home/book/manage-bookings/vacation.html",
		"/ca/en/aco/home/book/manage-bookings/flight-pass-summary.html",
		"/ca/en/aco/home/book/check-in.html",
		"/ca/en/aco/home/book/email-offers.html",
		"/ca/en/aco/home/book/why-book-with-us.html",
		"/ca/en/aco/home/book/why-book-with-us/premium-economy.html",
		"/ca/en/aco/home/book/why-book-with-us/make-your-mark.html",
		"/ca/en/aco/home/book/why-book-with-us/make-your-mark/thank-you.html",
		"/ca/en/aco/home/book/xredirect.html",
		"/ca/en/aco/home/book/flight-passes.html",
		"/ca/en/aco/home/book/upgrades.html",
		"/ca/en/aco/home/book/upgrades/frequently-asked-questions.html",
		"/ca/en/aco/home/book/payment-methods.html",
		"/ca/en/aco/home/book/payment-methods/ac-conversion.html",
		"/ca/en/aco/home/book/payment-methods/air-canada-gift-cards.html",
		"/ca/en/aco/home/book/payment-methods/air-canada-gift-cards/update-gift-cards.html",
		"/ca/en/aco/home/book/payment-methods/visa-checkout.html",
		"/ca/en/aco/home/book/payment-methods/masterpass.html",
		"/ca/en/aco/home/book/charters-rouge.html",
		"/ca/en/aco/home/book/charters-rouge/thank-you.html",
		"/ca/en/aco/home/book/ndc.html",
		"/ca/en/aco/home/book/ndc/thank-you.html",
		"/ca/en/aco/home/frequent-flyer.html",
		"/ca/en/aco/home/frequent-flyer/what-you-need-to-know.html",
		"/ca/en/aco/home/frequent-flyer/questions.html",
		"/ca/en/aco/home/frequent-flyer/questions/thank-you.html",
		"/ca/en/aco/home/frequent-flyer/your-ideas.html",
		"/ca/en/aco/home/frequent-flyer/updates.html",
		"/ca/en/aco/home/plan.html",
		"/ca/en/aco/home/plan/baggage.html",
		"/ca/en/aco/home/plan/baggage/carry-on.html",
		"/ca/en/aco/home/plan/baggage/checked.html",
		"/ca/en/aco/home/plan/baggage/checked/print-your-own-baggage-tags.html",
		"/ca/en/aco/home/plan/baggage/checked/luggage-forward-service.html",
		"/ca/en/aco/home/plan/baggage/special-items.html",
		"/ca/en/aco/home/plan/baggage/restricted-and-prohibited-items.html",
		"/ca/en/aco/home/plan/baggage/delayed-damaged-baggage.html",
		"/ca/en/aco/home/plan/baggage/delayed-damaged-baggage/lost-and-found.html",
		"/ca/en/aco/home/plan/baggage/delayed-damaged-baggage/baggage-declaration.html",
		"/ca/en/aco/home/plan/baggage/limits-of-liability.html",
		"/ca/en/aco/home/plan/travel-requirements.html",
		"/ca/en/aco/home/plan/travel-requirements/travel-documents.html",
		"/ca/en/aco/home/plan/travel-requirements/customs-and-immigration.html",
		"/ca/en/aco/home/plan/travel-requirements/advance-passenger-information.html",
		"/ca/en/aco/home/plan/travel-requirements/secure-flight-program.html",
		"/ca/en/aco/home/plan/travel-requirements/tsa-precheck.html",
		"/ca/en/aco/home/plan/special-assistance.html",
		"/ca/en/aco/home/plan/special-assistance/travelling-with-children.html",
		"/ca/en/aco/home/plan/special-assistance/pets.html",
		"/ca/en/aco/home/plan/special-assistance/special-meals.html",
		"/ca/en/aco/home/plan/special-assistance/meetings-and-conventions.html",
		"/ca/en/aco/home/plan/special-assistance/bereavement-fares.html",
		"/ca/en/aco/home/plan/special-assistance/unaccompanied-minor.html",
		"/ca/en/aco/home/plan/check-in-information.html",
		"/ca/en/aco/home/plan/check-in-information/how-to-check-in.html",
		"/ca/en/aco/home/plan/check-in-information/check-in-and-boarding-times.html",
		"/ca/en/aco/home/plan/check-in-information/minimum-connection-times.html",
		"/ca/en/aco/home/plan/check-in-information/check-in.html",
		"/ca/en/aco/home/plan/medical-mobility.html",
		"/ca/en/aco/home/plan/medical-mobility/advance-notice-and-medical-approval.html",
		"/ca/en/aco/home/plan/medical-mobility/travel-with-an-attendant.html",
		"/ca/en/aco/home/plan/medical-mobility/policy-on-allergies.html",
		"/ca/en/aco/home/plan/medical-mobility/visually-or-hearing-impaired.html",
		"/ca/en/aco/home/plan/medical-mobility/visually-or-hearing-impaired/ife-accessible-appendix-a.html",
		"/ca/en/aco/home/plan/medical-mobility/wheelchairs-and-mobility-aids.html",
		"/ca/en/aco/home/plan/medical-mobility/special-seating-needs.html",
		"/ca/en/aco/home/plan/medical-mobility/service-animal.html",
		"/ca/en/aco/home/plan/medical-mobility/travelling-with-oxygen.html",
		"/ca/en/aco/home/plan/medical-mobility/washroom-accessibility.html",
		"/ca/en/aco/home/plan/medical-mobility/personal-oxygen-concentrators.html",
		"/ca/en/aco/home/plan/medical-mobility/portable-battery-powered-medical-devices.html",
		"/ca/en/aco/home/plan/medical-mobility/battery-powered-mobility-aids.html",
		"/ca/en/aco/home/plan/medical-mobility/complaints-or-concerns.html",
		"/ca/en/aco/home/plan/peace-of-mind.html",
		"/ca/en/aco/home/plan/peace-of-mind/before-you-go-checklist.html",
		"/ca/en/aco/home/plan/peace-of-mind/travel-tips.html",
		"/ca/en/aco/home/plan/peace-of-mind/advance-seat-selection.html",
		"/ca/en/aco/home/plan/peace-of-mind/lowest-price-guarantee.html",
		"/ca/en/aco/home/plan/peace-of-mind/lowest-price-guarantee/thank-you.html",
		"/ca/en/aco/home/plan/peace-of-mind/travel-insurance.html",
		"/ca/en/aco/home/plan/peace-of-mind/on-my-way.html",
		"/ca/en/aco/home/plan/peace-of-mind/frequently-asked-questions.html",
		"/ca/en/aco/home/plan/peace-of-mind/family-travel-tips.html",
		"/ca/en/aco/home/plan/travel-options.html",
		"/ca/en/aco/home/fly.html",
		"/ca/en/aco/home/fly/check-in.html",
		"/ca/en/aco/home/fly/at-the-airport.html",
		"/ca/en/aco/home/fly/at-the-airport/airport-information.html",
		"/ca/en/aco/home/fly/at-the-airport/airport-information/toronto-pearson-international-airport.html",
		"/ca/en/aco/home/fly/at-the-airport/airport-information/toronto-pearson-international-airport/within-canada.html",
		"/ca/en/aco/home/fly/at-the-airport/airport-information/toronto-pearson-international-airport/ca-us.html",
		"/ca/en/aco/home/fly/at-the-airport/airport-information/toronto-pearson-international-airport/us-ca.html",
		"/ca/en/aco/home/fly/at-the-airport/airport-information/toronto-pearson-international-airport/ca-int.html",
		"/ca/en/aco/home/fly/at-the-airport/airport-information/toronto-pearson-international-airport/int-ca.html",
		"/ca/en/aco/home/fly/at-the-airport/airport-information/toronto-pearson-international-airport/us-int.html",
		"/ca/en/aco/home/fly/at-the-airport/airport-information/toronto-pearson-international-airport/int-us.html",
		"/ca/en/aco/home/fly/at-the-airport/airport-information/toronto-pearson-international-airport/int-int.html",
		"/ca/en/aco/home/fly/at-the-airport/airport-information/montreal-airport.html",
		"/ca/en/aco/home/fly/at-the-airport/airport-information/montreal-airport/within-canada.html",
		"/ca/en/aco/home/fly/at-the-airport/airport-information/montreal-airport/ca-us.html",
		"/ca/en/aco/home/fly/at-the-airport/airport-information/montreal-airport/us-ca.html",
		"/ca/en/aco/home/fly/at-the-airport/airport-information/montreal-airport/ca-int.html",
		"/ca/en/aco/home/fly/at-the-airport/airport-information/montreal-airport/int-ca.html",
		"/ca/en/aco/home/fly/at-the-airport/airport-information/montreal-airport/us-int.html",
		"/ca/en/aco/home/fly/at-the-airport/airport-information/montreal-airport/int-us.html",
		"/ca/en/aco/home/fly/at-the-airport/airport-information/montreal-airport/int-int.html",
		"/ca/en/aco/home/fly/at-the-airport/airport-information/toronto-city-airport.html",
		"/ca/en/aco/home/fly/at-the-airport/airport-information/vancouver-Int-airport.html",
		"/ca/en/aco/home/fly/at-the-airport/airport-information/vancouver-Int-airport/within-canada.html",
		"/ca/en/aco/home/fly/at-the-airport/airport-information/vancouver-Int-airport/ca-us.html",
		"/ca/en/aco/home/fly/at-the-airport/airport-information/vancouver-Int-airport/us-ca.html",
		"/ca/en/aco/home/fly/at-the-airport/airport-information/vancouver-Int-airport/ca-int.html",
		"/ca/en/aco/home/fly/at-the-airport/airport-information/vancouver-Int-airport/int-ca.html",
		"/ca/en/aco/home/fly/at-the-airport/airport-information/vancouver-Int-airport/us-int.html",
		"/ca/en/aco/home/fly/at-the-airport/airport-information/vancouver-Int-airport/int-us.html",
		"/ca/en/aco/home/fly/at-the-airport/airport-information/vancouver-Int-airport/int-int.html",
		"/ca/en/aco/home/fly/at-the-airport/airport-information/calgary-airport.html",
		"/ca/en/aco/home/fly/at-the-airport/airport-information/calgary-airport/within-canada.html",
		"/ca/en/aco/home/fly/at-the-airport/airport-information/calgary-airport/ca-us.html",
		"/ca/en/aco/home/fly/at-the-airport/airport-information/calgary-airport/us-ca.html",
		"/ca/en/aco/home/fly/at-the-airport/airport-information/calgary-airport/ca-int.html",
		"/ca/en/aco/home/fly/at-the-airport/airport-information/calgary-airport/int-ca.html",
		"/ca/en/aco/home/fly/at-the-airport/airport-information/calgary-airport/us-int.html",
		"/ca/en/aco/home/fly/at-the-airport/airport-information/calgary-airport/int-us.html",
		"/ca/en/aco/home/fly/at-the-airport/airport-information/calgary-airport/int-int.html",
		"/ca/en/aco/home/fly/at-the-airport/airport-information/london-heathrow.html",
		"/ca/en/aco/home/fly/at-the-airport/self-service-kiosks.html",
		"/ca/en/aco/home/fly/at-the-airport/boarding-by-zone.html",
		"/ca/en/aco/home/fly/premium-services.html",
		"/ca/en/aco/home/fly/premium-services/maple-leaf-lounges.html",
		"/ca/en/aco/home/fly/premium-services/maple-leaf-lounges/maple-leaf-lounge-details.html",
		"/ca/en/aco/home/fly/premium-services/priority-services.html",
		"/ca/en/aco/home/fly/premium-services/concierge-services.html",
		"/ca/en/aco/home/fly/premium-services/signature-suite.html",
		"/ca/en/aco/home/fly/flight-information.html",
		"/ca/en/aco/home/fly/flight-information/flights-status.html",
		"/ca/en/aco/home/fly/flight-information/daily-travel-outlook.html",
		"/ca/en/aco/home/fly/flight-information/flight-notification-service.html",
		"/ca/en/aco/home/fly/flight-information/flight-notification-service/text-message-service-terms-and-conditions.html",
		"/ca/en/aco/home/fly/flight-information/flight-notification-service/sign-up-manage-form.html",
		"/ca/en/aco/home/fly/flight-information/delayed-flights-and-cancellations.html",
		"/ca/en/aco/home/fly/flight-information/delayed-flights-and-cancellations/refund-options.html",
		"/ca/en/aco/home/fly/flight-information/delayed-flights-and-cancellations/alternate-travel.html",
		"/ca/en/aco/home/fly/flight-information/delayed-flights-and-cancellations/passenger-rights.html",
		"/ca/en/aco/home/fly/flight-information/pact.html",
		"/ca/en/aco/home/fly/flight-information/pact/7786.html",
		"/ca/en/aco/home/fly/flight-information/pact/900.html",
		"/ca/en/aco/home/fly/flight-information/pact/ac2367.html",
		"/ca/en/aco/home/fly/flight-information/pact/ife2000.html",
		"/ca/en/aco/home/fly/flight-information/pact/rouge.html",
		"/ca/en/aco/home/fly/flight-information/pact/ac7700.html",
		"/ca/en/aco/home/fly/flight-information/pact/message7700.html",
		"/ca/en/aco/home/fly/flight-information/pact/7700.html",
		"/ca/en/aco/home/fly/flight-information/flight-status-results.html",
		"/ca/en/aco/home/fly/flight-information/daily-travel-outlook-test.html",
		"/ca/en/aco/home/fly/air-canada-on-your-mobile-device.html",
		"/ca/en/aco/home/fly/air-canada-on-your-mobile-device/air-canada-app.html",
		"/ca/en/aco/home/fly/air-canada-on-your-mobile-device/air-canada-app/tc-ios.html",
		"/ca/en/aco/home/fly/air-canada-on-your-mobile-device/air-canada-app/tc-android.html",
		"/ca/en/aco/home/fly/air-canada-on-your-mobile-device/mobile-check-in.html",
		"/ca/en/aco/home/fly/air-canada-on-your-mobile-device/electronic-boarding-passes.html",
		"/ca/en/aco/home/fly/air-canada-on-your-mobile-device/passbook.html",
		"/ca/en/aco/home/fly/air-canada-on-your-mobile-device/air-canada-mobile-plus.html",
		"/ca/en/aco/home/fly/air-canada-on-your-mobile-device/mobile-devices.html",
		"/ca/en/aco/home/fly/air-canada-on-your-mobile-device/mobile-devices/tc-android.html",
		"/ca/en/aco/home/fly/air-canada-on-your-mobile-device/mobile-devices/tc-ios.html",
		"/ca/en/aco/home/fly/air-canada-on-your-mobile-device/flight-pass.html",
		"/ca/en/aco/home/fly/air-canada-on-your-mobile-device/wallet.html",
		"/ca/en/aco/home/fly/onboard.html",
		"/ca/en/aco/home/fly/onboard/meals.html",
		"/ca/en/aco/home/fly/onboard/fleet.html",
		"/ca/en/aco/home/fly/onboard/fleet/fins.html",
		"/ca/en/aco/home/fly/onboard/fleet/historical-fleet.html",
		"/ca/en/aco/home/fly/onboard/fleet/737max.html",
		"/ca/en/aco/home/fly/onboard/fleet/dreamliner.html",
		"/ca/en/aco/home/fly/onboard/cabin-features.html",
		"/ca/en/aco/home/fly/onboard/cabin-features/international-business-class.html",
		"/ca/en/aco/home/fly/onboard/cabin-features/north-america-caribbean-business-class.html",
		"/ca/en/aco/home/fly/onboard/cabin-features/premium-economy-class.html",
		"/ca/en/aco/home/fly/onboard/cabin-features/international-economy-class.html",
		"/ca/en/aco/home/fly/onboard/cabin-features/north-america-caribbean-economy-class.html",
		"/ca/en/aco/home/fly/onboard/cabin-features/international-premium-rouge-class.html",
		"/ca/en/aco/home/fly/onboard/cabin-features/north-america-caribbean-premium-rouge.html",
		"/ca/en/aco/home/fly/onboard/cabin-features/international-rouge-class.html",
		"/ca/en/aco/home/fly/onboard/cabin-features/north-america-caribbean-rouge-class.html",
		"/ca/en/aco/home/fly/onboard/cabin-features/signature-service.html",
		"/ca/en/aco/home/fly/onboard/cabin-features/transcontinental-business-class.html",
		"/ca/en/aco/home/fly/onboard/entertainment.html",
		"/ca/en/aco/home/fly/onboard/entertainment/navi.html",
		"/ca/en/aco/home/fly/onboard/preferred-seats.html",
		"/ca/en/aco/home/fly/onboard/preferred-seats/online-advance-seat-selection.html",
		"/ca/en/aco/home/fly/onboard/wi-fi.html",
		"/ca/en/aco/home/fly/onboard/duty-free.html",
		"/ca/en/aco/home/fly/onboard/credit-card-only-cabins.html",
		"/ca/en/aco/home/fly/onboard/culinary-program.html",
		"/ca/en/aco/home/fly/customer-support.html",
		"/ca/en/aco/home/fly/customer-support/frequently-asked-questions.html",
		"/ca/en/aco/home/fly/customer-support/electronic-and-paper-travel-vouchers.html",
		"/ca/en/aco/home/fly/customer-support/cancel-booking.html",
		"/ca/en/aco/home/fly/customer-support/customer-relations.html",
		"/ca/en/aco/home/fly/customer-support/ticket-receipt-billing-enquiries.html",
		"/ca/en/aco/home/fly/customer-support/ticket-receipt-billing-enquiries/thank-you.html",
		"/ca/en/aco/home/fly/customer-support/refund-services.html",
		"/ca/en/aco/home/fly/customer-support/contact-us.html",
		"/ca/en/aco/home/fly/customer-support/contact-us/contact-us-international.html",
		"/ca/en/aco/home/fly/customer-support/contact-us/email-us.html",
		"/ca/en/aco/home/fly/customer-support/contact-us/other-numbers.html",
		"/ca/en/aco/home/fly/aircanada.html",
		"/ca/en/aco/home/fly/new-site.html",
		"/ca/en/aco/home/altitude.html",
		"/ca/en/aco/home/altitude/program-overview.html",
		"/ca/en/aco/home/altitude/program-overview/program-updates.html",
		"/ca/en/aco/home/altitude/program-overview/report-aqd-discrepancies.html",
		"/ca/en/aco/home/altitude/program-overview/report-aqd-discrepancies/thank-you.html",
		"/ca/en/aco/home/altitude/program-overview/program-updates-2018.html",
		"/ca/en/aco/home/altitude/aeroplan.html",
		"/ca/en/aco/home/altitude/aeroplan/amex-cards.html",
		"/ca/en/aco/home/altitude/aeroplan/td-cards.html",
		"/ca/en/aco/home/altitude/aeroplan/cibc-cards.html",
		"/ca/en/aco/home/altitude/eupgrades.html",
		"/ca/en/aco/home/altitude/eupgrades/about-eupgrades.html",
		"/ca/en/aco/home/altitude/eupgrades/earn.html",
		"/ca/en/aco/home/altitude/eupgrades/calculate-eupgrades.html",
		"/ca/en/aco/home/altitude/eupgrades/share.html",
		"/ca/en/aco/home/altitude/eupgrades/request.html",
		"/ca/en/aco/home/altitude/eupgrades/last-minute-upgrade-purchase.html",
		"/ca/en/aco/home/altitude/eupgrades/star-alliance-upgrade-awards.html",
		"/ca/en/aco/home/altitude/eupgrades/report-eupgrade-discrepancies.html",
		"/ca/en/aco/home/altitude/eupgrades/report-eupgrade-discrepancies/thank-you.html",
		"/ca/en/aco/home/altitude/eupgrades/terms-and-conditions.html",
		"/ca/en/aco/home/altitude/eupgrades/calculate.html",
		"/ca/en/aco/home/altitude/eupgrades/booking-window.html",
		"/ca/en/aco/home/legal.html",
		"/ca/en/aco/home/legal/thank-you-casl1.html",
		"/ca/en/aco/home/legal/conditions-carriage-tariffs.html",
		"/ca/en/aco/home/legal/conditions-carriage-tariffs/tarmac-delays-chinese-airports.html",
		"/ca/en/aco/home/legal/privacy-policy.html",
		"/ca/en/aco/home/legal/terms-of-use.html",
		"/ca/en/aco/home/legal/products-and-services.html",
		"/ca/en/aco/home/legal/air-canada-customer-service-plan.html",
		"/ca/en/aco/home/legal/air-canada-customer-service-plan/denied-boarding.html",
		"/ca/en/aco/home/legal/contingency-plan-lengthy-tarmac-delays-chinese-airports.html",
		"/ca/en/aco/home/legal/thank-you-casl.html",
		"/ca/en/aco/home/legal/cargo-unsubscribe.html",
		"/ca/en/aco/home/legal/cargo-unsubscribe/thank-you.html",
		"/ca/en/aco/home/legal/about-our-fares.html",
		"/ca/en/aco/home/search-results.html",
		"/ca/en/aco/home/flights.html",
		"/ca/en/aco/home/flights/lowest-fare-finder.html",
		"/ca/en/aco/home/sitemap.html",
		"/ca/en/aco/home/gerr.html",
		"/ca/en/aco/home/sign-in.html",
		"/ca/en/aco/home/error.html",
		"/ca/en/aco/home/error/404.html",
		"/ca/en/aco/home/error/403.html",
		"/ca/en/aco/home/error/500.html",
		"/ca/en/aco/home/about.html",
		"/ca/en/aco/home/about/corporate-profile.html",
		"/ca/en/aco/home/about/corporate-governance.html",
		"/ca/en/aco/home/about/corporate-governance/board-of-directors.html",
		"/ca/en/aco/home/about/corporate-governance/executive-biographies.html",
		"/ca/en/aco/home/about/corporate-governance/corporate-policy.html",
		"/ca/en/aco/home/about/corporate-responsibility.html",
		"/ca/en/aco/home/about/corporate-responsibility/sponsorship.html",
		"/ca/en/aco/home/about/corporate-responsibility/community.html",
		"/ca/en/aco/home/about/corporate-responsibility/community/apply-support-online.html",
		"/ca/en/aco/home/about/corporate-responsibility/corporate-sustainability-reports.html",
		"/ca/en/aco/home/about/corporate-responsibility/corporate-sustainability-reports/gri-tables-2015.html",
		"/ca/en/aco/home/about/corporate-responsibility/corporate-sustainability-reports/gri-tables-archive.html",
		"/ca/en/aco/home/about/corporate-responsibility/corporate-sustainability-reports/charts-2016.html",
		"/ca/en/aco/home/about/corporate-responsibility/corporate-sustainability-reports/gri-tables-2016.html",
		"/ca/en/aco/home/about/corporate-responsibility/corporate-sustainability-reports/csr-archive.html",
		"/ca/en/aco/home/about/corporate-responsibility/corporate-sustainability-reports/gri-tables.html",
		"/ca/en/aco/home/about/corporate-responsibility/corporate-sustainability-reports/gri-tables-2017.html",
		"/ca/en/aco/home/about/corporate-responsibility/environment.html",
		"/ca/en/aco/home/about/corporate-responsibility/environment/carbon-offset-program.html",
		"/ca/en/aco/home/about/corporate-responsibility/environment/leaveless.html",
		"/ca/en/aco/home/about/investor-relations.html",
		"/ca/en/aco/home/about/investor-relations/financial-reports-and-information.html",
		"/ca/en/aco/home/about/careers.html",
		"/ca/en/aco/home/about/careers/career-opportunities.html",
		"/ca/en/aco/home/about/official-languages.html",
		"/ca/en/aco/home/about/safety.html",
		"/ca/en/aco/home/about/media.html",
		"/ca/en/aco/home/about/media/lga-mll.html",
		"/ca/en/aco/home/about/media/air-canada-rouge.html",
		"/ca/en/aco/home/about/media/air-canada-usa.html",
		"/ca/en/aco/home/about/media/winter-readiness.html",
		"/ca/en/aco/home/about/media/facts-about-air-canada.html",
		"/ca/en/aco/home/about/media/photos-logos.html",
		"/ca/en/aco/home/about/media/photos-logos/our-fleet.html",
		"/ca/en/aco/home/about/media/photos-logos/our-cabins.html",
		"/ca/en/aco/home/about/media/photos-logos/lounges.html",
		"/ca/en/aco/home/about/media/photos-logos/jetz.html",
		"/ca/en/aco/home/about/media/photos-logos/star-alliance.html",
		"/ca/en/aco/home/about/media/photos-logos/products-services.html",
		"/ca/en/aco/home/about/media/photos-logos/gallery.html",
		"/ca/en/aco/home/about/media/photos-logos/rouge.html",
		"/ca/en/aco/home/about/media/photos-logos/express.html",
		"/ca/en/aco/home/about/media/photos-logos/airbus-a220.html",
		"/ca/en/aco/home/about/media/speeches-presentations.html",
		"/ca/en/aco/home/about/media/air-canada-awards.html",
		"/ca/en/aco/home/about/media/new-livery.html",
		"/ca/en/aco/home/about/media/permission.html",
		"/ca/en/aco/home/about/media/permission/thank-you.html",
		"/ca/en/aco/home/about/media/media-features.html",
		"/ca/en/aco/home/about/media/media-features/essential-airport-hacks-for-the-holidays.html",
		"/ca/en/aco/home/about/media/media-features/5-spectacular-destinations-for-your-winter-holiday.html",
		"/ca/en/aco/home/about/media/media-features/5-secrets-for-work-life-balance-for-busy-professionals.html",
		"/ca/en/aco/home/about/media/media-features/why-airline-concierges-are-hidden-heroes-for-frequent-fliers.html",
		"/ca/en/aco/home/about/media/media-features/this-person-is-more-in-control-of-your-flight-than-the-pilot.html",
		"/ca/en/aco/home/about/media/media-features/air-canada-our-new-livery.html",
		"/ca/en/aco/home/about/media/media-features/accessing-healthcare-in-remote-canadian-locations.html",
		"/ca/en/aco/home/about/media/media-features/helping-a-young-boy-realize-his-dream.html",
		"/ca/en/aco/home/about/media/media-features/air-canada-2016-corporate-sustainability-report-affirms-commitment-to-responsible-business-practices.html",
		"/ca/en/aco/home/about/media/media-features/meet-janice-at-six-months-old-she-was-the-youngest-on-tcas-inaugural-to-shannon-in-1947.html",
		"/ca/en/aco/home/about/media/media-features/riding-in-air-canadas-lockheed-10a-electra.html",
		"/ca/en/aco/home/about/media/media-features/air-canada-lockheed-10-a-takes-to-the-skies-to-mark-the-airlines-80th-anniversary.html",
		"/ca/en/aco/home/about/media/media-features/air-canada-announces-appointment-of-catherine-dyer-as-chief-information-officer.html",
		"/ca/en/aco/home/about/media/media-features/meet-steve-manager-continuous-improvement.html",
		"/ca/en/aco/home/about/media/media-features/lost-bullocks-oriole-gets-metal-wings-to-fly-from-ottawa-back-home-to-bc.html",
		"/ca/en/aco/home/about/media/media-features/blank.html",
		"/ca/en/aco/home/about/media/media-features/air-canada-mark-makers.html",
		"/ca/en/aco/home/about/media/media-features/fresh-ideas-for-a-fun-and-relaxing-holiday-season.html",
		"/ca/en/aco/home/about/media/media-features/video-tour-of-air-canadas-vancouver-international-maple-leaf-lounge.html",
		"/ca/en/aco/home/about/media/media-features/air-canada-provides-humanitarian-relief-of-essential-supplies-to-regions-affected-by-hurricane-irma.html",
		"/ca/en/aco/home/about/media/media-features/air-canada-foundation-raises-more-than-1100000-net-to-help-canadian-childrens-charities.html",
		"/ca/en/aco/home/about/media/media-features/find-out-what-not-to-miss-in-taipei.html",
		"/ca/en/aco/home/about/media/media-features/5-canadian-travel-destinations-to-celebrate-150.html",
		"/ca/en/aco/home/about/media/media-features/how-to-travel-in-luxury-without-spending-a-fortune.html",
		"/ca/en/aco/home/about/media/media-features/enjoy-an-effortless-family-vacation.html",
		"/ca/en/aco/home/about/media/media-features/ideas-to-keep-kids-entertained-on-planes.html",
		"/ca/en/aco/home/about/media/media-features/48-hours-in-shanghai-what-to-see-and-do.html",
		"/ca/en/aco/home/about/media/media-features/tips-to-enjoy-every-minute-of-a-short-vacation.html",
		"/ca/en/aco/home/about/media/media-features/air-canada-proud-to-be-a-signature-sponsor-of-the-invictus-games-toronto-2017.html",
		"/ca/en/aco/home/about/media/media-features/david-shapiro.html",
		"/ca/en/aco/home/about/media/media-features/meet-robert-stock-keeper.html",
		"/ca/en/aco/home/about/media/media-features/meet-jeff-lead-cabin-service-cleaning-attendant-and-trainer.html",
		"/ca/en/aco/home/about/media/media-features/meet-micheline-boeing-787-first-officer-and-flight-instructor.html",
		"/ca/en/aco/home/about/media/media-features/meet-harold-inflight-training-specialist.html",
		"/ca/en/aco/home/about/media/media-features/michael-rousseau-of-air-canada-named-canada-cfo-of-the-year-for-2017.html",
		"/ca/en/aco/home/about/media/media-features/flight-of-a-lifetime.html",
		"/ca/en/aco/home/about/media/media-features/air-canada-reunites-families.html",
		"/ca/en/aco/home/about/media/media-features/calin-rovinescu-named-canada-outstanding-ceo-of-the-year-for-2016.html",
		"/ca/en/aco/home/about/media/media-features/ben-smith-at-skift-global-forum-2016.html",
		"/ca/en/aco/home/about/media/media-features/calin-rovinescu-2016-concordia-honorary-doctorate.html",
		"/ca/en/aco/home/about/media/media-features/ab-delhi-door-nahin-yvr-airport-throws-a-party-for-air-canada-customers-on-the-inaugural-flight-from-vancouver-to-delhi.html",
		"/ca/en/aco/home/about/media/media-features/get-answers-to-your-air-travel-faqs-from-a-pilot.html",
		"/ca/en/aco/home/about/media/media-features/5-tips-for-stress-free-summer-air-travel.html",
		"/ca/en/aco/home/about/media/media-features/top-surprising-summer-travel-destinations.html",
		"/ca/en/aco/home/about/media/media-features/48-hours-in-dubai-what-to-see-and-do.html",
		"/ca/en/aco/home/about/media/media-features/women-flying-high-in-non-traditional-roles.html",
		"/ca/en/aco/home/about/media/media-features/brian-chow-pit-crew.html",
		"/ca/en/aco/home/about/media/media-features/how-technology-is-simplifying-the-travel-experience.html",
		"/ca/en/aco/home/about/media/media-features/top-summer-travel-tips-to-take-the-stress-out-of-travel.html",
		"/ca/en/aco/home/about/media/media-features/safe-summer-travel-destinations.html",
		"/ca/en/aco/home/about/media/media-features/globe-trotting-made-easier.html",
		"/ca/en/aco/home/about/media/media-features/top-5-airline-travel-tips.html",
		"/ca/en/aco/home/about/media/media-features/making-a-difference-in-the-lives-of-canadians-in-need.html",
		"/ca/en/aco/home/about/media/media-features/three-cabin-review-of-air-canadas-boeing-787-dreamliner.html",
		"/ca/en/aco/home/about/media/media-features/air-canada-als-ice-bucket-challenge.html",
		"/ca/en/aco/home/about/media/media-features/building-air-canadas-boeing-787-meet-air-canadasfleet.html",
		"/ca/en/aco/home/about/media/media-features/air-canada-travel-unravelled-goes-to-flight-school.html",
		"/ca/en/aco/home/about/media/media-features/air-canada-travel-unravelled-goes-to-flight-attendant-school.html",
		"/ca/en/aco/home/about/media/media-features/air-canada-travel-unravelled-goes-green.html",
		"/ca/en/aco/home/about/media/media-features/the-skys-the-limit-since-1937.html",
		"/ca/en/aco/home/about/media/media-features/a-world-of-expertise.html",
		"/ca/en/aco/home/about/media/media-features/80-years-of-aviation.html",
		"/ca/en/aco/home/about/media/media-features/our-love-for-vancouver.html",
		"/ca/en/aco/home/about/media/media-features/weathering-the-storms.html",
		"/ca/en/aco/home/about/media/media-features/flying-brand-canada.html",
		"/ca/en/aco/home/about/media/media-features/eco-friendly-skies.html",
		"/ca/en/aco/home/about/media/media-features/high-tech.html",
		"/ca/en/aco/home/about/media/media-features/above-and-beyond.html",
		"/ca/en/aco/home/about/media/media-features/careers-take-flight.html",
		"/ca/en/aco/home/about/media/media-features/our-signature-move.html",
		"/ca/en/aco/home/about/media/media-features/acclaim-for-cargo.html",
		"/ca/en/aco/home/about/media/media-features/Calin-Rovinescu-member-to-the-Order-of-Canada.html",
		"/ca/en/aco/home/about/media/media-features/new-transcontinental-signature-class-review.html",
		"/ca/en/aco/home/about/media/media-features/right-airfare.html",
		"/ca/en/aco/home/about/media/media-features/smooth-travel.html",
		"/ca/en/aco/home/about/media/media-features/high-five-rouge.html",
		"/ca/en/aco/home/about/media/media-features/people-of-pearson-tony.html",
		"/ca/en/aco/home/about/media/media-features/people-of-pearson-paul.html",
		"/ca/en/aco/home/about/media/media-features/brian-chow-signature.html",
		"/ca/en/aco/home/about/media/media-features/skytrax-2018.html",
		"/ca/en/aco/home/about/media/media-features/Bees-create-buzz.html",
		"/ca/en/aco/home/about/media/media-features/testing.html",
		"/ca/en/aco/home/about/media/media-features/carey-price-birthday.html",
		"/ca/en/aco/home/about/media/media-features/future-perfect.html",
		"/ca/en/aco/home/about/media/media-features/people-of-pearson-chris.html",
		"/ca/en/aco/home/about/media/media-features/recycling.html",
		"/ca/en/aco/home/about/media/media-features/pay-as-you-go.html",
		"/ca/en/aco/home/about/media/media-features/northern-lights.html",
		"/ca/en/aco/home/about/media/media-features/diversity.html",
		"/ca/en/aco/home/about/media/media-features/tiaca.html",
		"/ca/en/aco/home/about/media/media-features/pinball.html",
		"/ca/en/aco/home/about/media/media-features/sustainability.html",
		"/ca/en/aco/home/about/media/media-features/pearson-bruno.html",
		"/ca/en/aco/home/about/media/media-features/vimy-benches.html",
		"/ca/en/aco/home/about/media/media-features/women-in-aviation.html",
		"/ca/en/aco/home/about/media/media-features/spreading-our-wings.html",
		"/ca/en/aco/home/about/media/media-features/maintenance-mobility.html",
		"/ca/en/aco/home/about/media/media-features/soc.html",
		"/ca/en/aco/home/about/media/media-features/shaping-up.html",
		"/ca/en/aco/home/about/media/media-features/brian-losito-feature.html",
		"/ca/en/aco/home/about/media/media-features/miles-donated.html",
		"/ca/en/aco/home/about/media/media-features/year-of-the-lounge.html",
		"/ca/en/aco/home/about/media/media-features/people-of-pearson-heather.html",
		"/ca/en/aco/home/about/media/media-features/people-of-pearson-victor.html",
		"/ca/en/aco/home/about/media/media-features/yul-pet-squad.html",
		"/ca/en/aco/home/about/media/media-features/med-kit.html",
		"/ca/en/aco/home/about/media/media-features/connecting-the-dots.html",
		"/ca/en/aco/home/about/media/media-features/acv-ferreira-group.html",
		"/ca/en/aco/home/about/media/media-features/future-fa.html",
		"/ca/en/aco/home/about/media/media-features/bringing-warmth-comfort.html",
		"/ca/en/aco/home/about/media/media-features/cargo-team-shows-skills.html",
		"/ca/en/aco/home/about/media/media-features/de-icing.html",
		"/ca/en/aco/home/about/media/media-features/we-mean-business.html",
		"/ca/en/aco/home/about/media/media-features/diversions-in-st-john.html",
		"/ca/en/aco/home/about/media/media-features/people-of-pearson-damar.html",
		"/ca/en/aco/home/about/media/media-features/shooting-for-the-stars.html",
		"/ca/en/aco/home/about/media/media-features/womens-day-2019.html",
		"/ca/en/aco/home/about/media/media-features/people-of-pearson-kamana.html",
		"/ca/en/aco/home/about/media/media-features/maintenance-mentorship-program.html",
		"/ca/en/aco/home/about/media/media-features/tips-family-travel.html",
		"/ca/en/aco/home/about/media/media-features/higher-education.html",
		"/ca/en/aco/home/about/media/media-features/every-bit-counts.html",
		"/ca/en/aco/home/about/media/media-features/weather-soc.html",
		"/ca/en/aco/home/about/media/media-features/air-canada-trans-pacific-hub.html",
		"/ca/en/aco/home/about/media/media-features/tire-change-season.html",
		"/ca/en/aco/home/about/media/media-features/ten-years-after.html",
		"/ca/en/aco/home/about/media/media-features/flood-aid.html",
		"/ca/en/aco/home/about/media/media-features/vimy-foundation.html",
		"/ca/en/aco/home/about/media/media-features/tip-of-the-toes-foundation.html",
		"/ca/en/aco/home/about/media/media-features/artificial-intelligence-labs.html",
		"/ca/en/aco/home/about/media/media-features/once-in-a-lifetime-trip.html",
		"/ca/en/aco/home/about/media/media-features/wine-in-the-sky.html",
		"/ca/en/aco/home/about/media/media-features/dreams-take-flight.html",
		"/ca/en/aco/home/about/media/media-features/meet-liz-concierge.html",
		"/ca/en/aco/home/about/media/media-features/runways-taxiways.html",
		"/ca/en/aco/home/about/media/media-features/sustained-effort.html",
		"/ca/en/aco/home/about/media/media-features/instruments.html",
		"/ca/en/aco/home/about/media/media-features/winning-ways.html",
		"/ca/en/aco/home/about/media/media-features/mark-galardo-40-under-40.html",
		"/ca/en/aco/home/about/media/media-features/pointe-a-calliere-museum.html",
		"/ca/en/aco/home/about/media/media-features/air-canada-pilots-wifi.html",
		"/ca/en/aco/home/about/media/media-features/iata-datathon.html",
		"/ca/en/aco/home/about/media/media-features/lightning-advisories.html",
		"/ca/en/aco/home/about/media/media-features/tale-wind.html",
		"/ca/en/aco/home/about/media/media-subscribe.html",
		"/ca/en/aco/home/about/media/media-subscribe/thank-you.html",
		"/ca/en/aco/home/about/media/womensday.html",
		"/ca/en/aco/home/about/media/womensday2018.html",
		"/ca/en/aco/home/about/media/awards.html",
		"/ca/en/aco/home/about/statements.html",
		"/ca/en/aco/home/about/suppliers.html",
		"/ca/en/aco/home/about/suppliers/current-suppliers.html",
		"/ca/en/aco/home/about/suppliers/current-suppliers/thank-you.html",
		"/ca/en/aco/home/email-pref-center.html",
		"/ca/en/aco/home/email-pref-center/subscription.html",
		"/ca/en/aco/home/email-pref-center/thank-you.html",
		"/ca/en/aco/home/email-pref-center/unsubscribe.html"
	]
}
